<?xml version="1.0" encoding="utf-8"?>
<!-- Generator: Adobe Illustrator 16.2.1, SVG Export Plug-In . SVG Version: 6.00 Build 0)  -->
<!DOCTYPE svg PUBLIC "-//W3C//DTD SVG 1.1//EN" "http://www.w3.org/Graphics/SVG/1.1/DTD/svg11.dtd">
<svg version="1.1" id="Layer_1" xmlns="http://www.w3.org/2000/svg" xmlns:xlink="http://www.w3.org/1999/xlink" x="0px" y="0px"
     width="72.5px" height="100px" viewBox="0 0 72.5 100" style="enable-background:new 0 0 72.5 100;" xml:space="preserve">
    <path style="fill-rule: evenodd" d="M5 0h40a27.5 27.5 0 0 1 0 55h-30v6h38v10h-38v29h-10v-29h-5v-10h5v-6h-5v-10h5zM15 10h30a17.5 17.5 0 0 1 0 35h-30z"/>
</svg>
